{
  "components": [
    {
      "data": {
        "contents_checksum": "4f14759dfdbd5f7b1d3888fdf171c0bb681eb4ae9f696b2dc9efa31b2d326d92", 
        "source": "", 
        "type": "tar"
      }, 
      "dependencies": [
        "core", 
        "gcloud-deps"
      ], 
      "details": {
        "description": "Set of third_party gcloud cli dependencies.", 
        "display_name": "gcloud cli dependencies"
      }, 
      "id": "gcloud-deps-linux-x86_64", 
      "is_configuration": false, 
      "is_hidden": true, 
      "is_required": false, 
      "platform": {
        "architectures": [
          "x86_64"
        ], 
        "operating_systems": [
          "LINUX"
        ]
      }, 
      "version": {
        "build_number": 20171201165802, 
        "version_string": "2017.12.01"
      }
    }
  ], 
  "revision": 20171201165802, 
  "schema_version": {
    "no_update": false, 
    "url": "https://dl.google.com/dl/cloudsdk/channels/rapid/google-cloud-sdk.tar.gz", 
    "version": 3
  }, 
  "version": "182.0.0"
}